module comments

go 1.14

require (
	github.com/davecgh/go-spew v1.1.1
	github.com/gemcook/pagination-go v0.2.1
	github.com/gorilla/mux v1.7.0
	github.com/lib/pq v1.0.0
	github.com/subosito/gotenv v1.1.1
)
